<svg width="48" height="48" viewBox="0 0 48 48" fill="none" xmlns="http://www.w3.org/2000/svg">
<path d="M30.2298 12.6562H8.30147C7.91316 12.6562 7.59834 12.9711 7.59834 13.3594C7.59834 13.7477 7.91316 14.0625 8.30147 14.0625H30.2297C30.618 14.0625 30.9328 13.7477 30.9328 13.3594C30.9328 12.9711 30.6181 12.6562 30.2298 12.6562ZM29.761 4.21875H25.1092C24.7208 4.21875 24.406 4.53356 24.406 4.92188C24.406 5.31019 24.7208 5.625 25.1092 5.625H29.5267V8.4375H9.00459V5.625H21.8278C22.2161 5.625 22.5309 5.31019 22.5309 4.92188C22.5309 4.53356 22.2161 4.21875 21.8278 4.21875H8.77022C8.124 4.21875 7.59834 4.74441 7.59834 5.39062V8.67188C7.59834 9.31809 8.124 9.84375 8.77022 9.84375H29.7609C30.4072 9.84375 30.9328 9.31809 30.9328 8.67188V5.39062C30.9329 4.74441 30.4072 4.21875 29.761 4.21875ZM30.2298 15.4688H8.30147C7.91316 15.4688 7.59834 15.7836 7.59834 16.1719C7.59834 16.5602 7.91316 16.875 8.30147 16.875H30.2297C30.618 16.875 30.9328 16.5602 30.9328 16.1719C30.9328 15.7836 30.6181 15.4688 30.2298 15.4688ZM30.2298 21.0938H22.3641C21.9757 21.0938 21.6609 21.4086 21.6609 21.7969C21.6609 22.1852 21.9757 22.5 22.3641 22.5H30.2298C30.6181 22.5 30.9329 22.1852 30.9329 21.7969C30.9329 21.4086 30.6181 21.0938 30.2298 21.0938ZM30.2298 18.2812H22.3641C21.9757 18.2812 21.6609 18.5961 21.6609 18.9844C21.6609 19.3727 21.9757 19.6875 22.3641 19.6875H30.2298C30.6181 19.6875 30.9329 19.3727 30.9329 18.9844C30.9329 18.5961 30.6181 18.2812 30.2298 18.2812ZM38.5312 29.019V27.4219C38.5312 25.7212 37.3173 24.2989 35.7103 23.9755V3.51562C35.7103 1.57706 34.1333 0 32.1947 0H6.33656C4.398 0 2.82094 1.57706 2.82094 3.51562V18.3505C1.21397 18.6739 0 20.0962 0 21.7969V31.7738C0 32.1621 0.314812 32.4769 0.703125 32.4769C1.09144 32.4769 1.40625 32.1621 1.40625 31.7738V21.7969C1.40625 20.6337 2.35247 19.6875 3.51562 19.6875H17.235C18.0322 19.6875 18.7244 20.2278 18.9182 21.0007L19.401 22.9338C19.7508 24.3343 21.0036 25.3125 22.4475 25.3125H35.0156C36.1788 25.3125 37.125 26.2587 37.125 27.4219V29.12C32.5457 29.7922 29.0187 33.7463 29.0187 38.5093C29.0187 41.9231 30.8308 44.9213 33.5433 46.5937H3.51562C2.35247 46.5938 1.40625 45.6475 1.40625 44.4844V35.055C1.40625 34.6667 1.09144 34.3519 0.703125 34.3519C0.314812 34.3519 0 34.6667 0 35.055V44.4844C0 46.4229 1.57706 48 3.51562 48H35.0156C35.4718 48 35.9111 47.9138 36.3258 47.746C37.0271 47.9118 37.7581 48 38.5094 48C43.7425 48 48 43.7425 48 38.5094C48 33.2835 43.7543 29.0309 38.5312 29.019ZM34.3041 23.9062H22.4475C21.6502 23.9062 20.9585 23.3662 20.7653 22.5931L20.2823 20.6594C19.9314 19.2592 18.6783 18.2812 17.235 18.2812H4.22719V3.51562C4.22719 2.35247 5.17341 1.40625 6.33656 1.40625H32.1947C33.3578 1.40625 34.3041 2.35247 34.3041 3.51562V23.9062ZM38.5094 46.5938C34.0517 46.5938 30.4251 42.9671 30.4251 38.5094C30.4251 34.0517 34.0517 30.4251 38.5094 30.4251C42.9671 30.4251 46.5938 34.0516 46.5938 38.5094C46.5938 42.9672 42.9671 46.5938 38.5094 46.5938ZM41.8872 39.6556H40.8469V34.0711C40.8469 33.391 40.2936 32.8377 39.6135 32.8377H37.4053C36.7253 32.8377 36.1719 33.391 36.1719 34.0711V39.6556H35.1316C34.6617 39.6556 34.2419 39.9361 34.0621 40.3703C33.8823 40.8044 33.9807 41.2996 34.3131 41.6318L37.6373 44.9561C37.8778 45.1966 38.1937 45.3168 38.5095 45.3168C38.8253 45.3168 39.1412 45.1966 39.3817 44.9561L42.7059 41.6318C43.0382 41.2996 43.1367 40.8044 42.9569 40.3703C42.7769 39.9361 42.3571 39.6556 41.8872 39.6556ZM38.5094 43.8396L35.7318 41.0619H36.3448C37.0249 41.0619 37.5782 40.5086 37.5782 39.8286V34.2441H39.4406V39.8286C39.4406 40.5086 39.9939 41.0619 40.674 41.0619H41.287L38.5094 43.8396ZM26.9584 33.5601C27.3467 33.5601 27.6615 33.2453 27.6615 32.8569C27.6615 32.4686 27.3467 32.1538 26.9584 32.1538H24.4299C24.0416 32.1538 23.7268 32.4686 23.7268 32.8569V39.0952C23.7268 39.4836 24.0416 39.7984 24.4299 39.7984C24.8183 39.7984 25.1331 39.4836 25.1331 39.0952V36.6202H26.7576C27.1459 36.6202 27.4607 36.3053 27.4607 35.917C27.4607 35.5287 27.1459 35.2139 26.7576 35.2139H25.1331V33.5601H26.9584ZM17.7483 39.7985H17.7509C17.8031 39.7983 19.0343 39.7935 19.526 39.785C21.324 39.7536 22.629 38.1811 22.629 36.0461C22.629 33.8018 21.3567 32.2938 19.4632 32.2938H17.7359C17.5492 32.2938 17.3702 32.368 17.2383 32.5002C17.1064 32.6324 17.0324 32.8116 17.0328 32.9983V33.0032V38.9964C17.0346 39.3983 17.3422 39.8017 17.7483 39.7985ZM19.4632 33.6999C20.7605 33.6999 21.2228 34.9118 21.2228 36.046C21.2228 37.6368 20.3582 38.3639 19.5014 38.3788C19.2607 38.383 18.8258 38.3864 18.449 38.3886C18.4466 37.6673 18.4416 34.4498 18.4403 33.6998H19.4632V33.6999ZM12.276 39.0953V37.0649C12.6484 37.0629 13.0808 37.061 13.3228 37.061C14.7076 37.061 15.8341 35.9499 15.8341 34.5844C15.8341 33.2188 14.7075 32.1078 13.3228 32.1078H11.5729C11.2253 32.1008 10.8551 32.4157 10.8698 32.8109V39.0952C10.8698 39.4836 11.1846 39.7984 11.5729 39.7984C11.9612 39.7984 12.276 39.4837 12.276 39.0953ZM13.3227 33.514C13.9217 33.514 14.4277 34.0042 14.4277 34.5844C14.4277 35.1646 13.9217 35.6547 13.3227 35.6547C13.0825 35.6547 12.6554 35.6567 12.2843 35.6586C12.2823 35.2757 12.2792 33.9144 12.2781 33.514H13.3227Z" fill="#0043EC"/>
</svg>
