<svg width="34" height="34" viewBox="0 0 34 34" fill="none" xmlns="http://www.w3.org/2000/svg">
<path d="M17 34C26.3888 34 34 26.3888 34 17C34 7.61116 26.3888 0 17 0C7.61116 0 0 7.61116 0 17C0 26.3888 7.61116 34 17 34Z" fill="#6F3FAA"/>
<path d="M24.375 9.32615C20.2371 8.32673 16.0919 7.15772 11.8484 8.64296C9.10087 9.67325 9.10087 12.6497 9.21535 15.1682C9.21535 15.8551 8.41403 16.771 8.75742 17.5723C9.44426 19.8618 10.0167 22.1514 12.4207 23.2962C12.7642 23.5251 12.4207 23.983 12.6497 24.3265C12.5352 24.3265 12.3062 24.4409 12.3062 24.5554C12.3062 25.1041 12.5525 25.9434 12.3889 26.4845L19.694 33.7866C27.2039 32.5906 33.0734 26.4774 33.8992 18.8504L24.375 9.32615Z" fill="#512D84"/>
<path d="M25.9933 11.948L25.9877 11.9255C25.5335 10.0892 23.4857 8.11879 21.605 7.70886L21.5838 7.70448C18.542 7.12422 15.4578 7.12422 12.4167 7.70448L12.3948 7.70886C10.5149 8.11879 8.46695 10.0893 8.01213 11.9255L8.00709 11.948C7.44555 14.5124 7.44555 17.1131 8.00709 19.6775L8.01213 19.7C8.44763 21.4579 10.3429 23.3378 12.1534 23.8548V25.9046C12.1534 26.6466 13.0575 27.011 13.5716 26.4755L15.6485 24.3167C16.099 24.3419 16.5497 24.356 17.0002 24.356C18.5313 24.356 20.0632 24.2111 21.5838 23.9211L21.605 23.9167C23.4856 23.5068 25.5334 21.5362 25.9876 19.7L25.9932 19.6776C26.5547 17.1131 26.5548 14.5125 25.9933 11.948ZM24.3497 19.3057C24.0464 20.5038 22.4916 21.9931 21.2561 22.2683C19.6388 22.5759 18.0086 22.7073 16.3801 22.6622C16.3476 22.6613 16.3165 22.6739 16.294 22.6972C16.0628 22.9344 14.7776 24.2538 14.7776 24.2538L13.1647 25.9092C13.0468 26.0322 12.8396 25.9485 12.8396 25.7788V22.383C12.8396 22.3269 12.7996 22.2793 12.7444 22.2684C12.7441 22.2683 12.7438 22.2683 12.7435 22.2682C11.5081 21.993 9.95379 20.5037 9.64998 19.3057C9.14456 16.9877 9.14456 14.6378 9.64998 12.3198C9.95379 11.1218 11.5081 9.63245 12.7435 9.35726C15.5682 8.82004 18.4321 8.82004 21.2562 9.35726C22.4922 9.63245 24.0465 11.1218 24.3497 12.3198C24.8557 14.6379 24.8557 16.9877 24.3497 19.3057Z" fill="white"/>
<path d="M19.6875 20.8733C19.4976 20.8156 19.3167 20.7769 19.1485 20.7072C17.4065 19.9845 15.8035 19.0522 14.5337 17.623C13.8116 16.8104 13.2465 15.8928 12.7687 14.9218C12.5422 14.4614 12.3512 13.9829 12.1566 13.5074C11.9792 13.0739 12.2405 12.6261 12.5157 12.2994C12.774 11.9928 13.1063 11.7582 13.4663 11.5853C13.7472 11.4503 14.0242 11.5281 14.2294 11.7662C14.6729 12.281 15.0803 12.8221 15.4101 13.4188C15.613 13.7858 15.5573 14.2345 15.1896 14.4842C15.1003 14.5449 15.0188 14.6162 14.9356 14.6848C14.8626 14.7449 14.7939 14.8056 14.7439 14.8869C14.6524 15.0357 14.648 15.2114 14.7069 15.3732C15.1602 16.619 15.9244 17.5879 17.1784 18.1098C17.3791 18.1933 17.5806 18.2904 17.8118 18.2635C18.199 18.2183 18.3244 17.7936 18.5957 17.5717C18.8608 17.3549 19.1998 17.352 19.4854 17.5328C19.7711 17.7137 20.0481 17.9077 20.3234 18.104C20.5937 18.2965 20.8627 18.4848 21.1119 18.7044C21.3516 18.9155 21.4342 19.1924 21.2992 19.4788C21.0521 20.0035 20.6925 20.4399 20.174 20.7185C20.0275 20.797 19.8526 20.8224 19.6875 20.8733C19.4976 20.8156 19.8526 20.8224 19.6875 20.8733Z" fill="white"/>
<path d="M17.0048 10.9853C19.2832 11.0492 21.1546 12.5612 21.5556 14.8137C21.6239 15.1975 21.6482 15.5898 21.6786 15.9794C21.6915 16.1433 21.5986 16.2989 21.4219 16.3011C21.2392 16.3033 21.1571 16.1504 21.1451 15.9867C21.1217 15.6625 21.1054 15.3368 21.0607 15.0154C20.8249 13.3181 19.4716 11.914 17.7822 11.6127C17.5279 11.5673 17.2679 11.5554 17.0103 11.5284C16.8475 11.5113 16.6344 11.5015 16.5983 11.2991C16.5681 11.1294 16.7113 10.9944 16.8728 10.9857C16.9166 10.9831 16.9607 10.9851 17.0048 10.9853C19.2833 11.0492 16.9607 10.9851 17.0048 10.9853Z" fill="white"/>
<path d="M20.4674 15.4737C20.4636 15.5022 20.4617 15.5691 20.445 15.632C20.3845 15.8608 20.0376 15.8894 19.9579 15.6586C19.9342 15.5901 19.9307 15.5122 19.9305 15.4385C19.9297 14.956 19.8249 14.4739 19.5815 14.054C19.3313 13.6224 18.9491 13.2598 18.5009 13.0401C18.2299 12.9075 17.9368 12.8249 17.6397 12.7758C17.5099 12.7543 17.3787 12.7414 17.2482 12.7232C17.0901 12.7012 17.0056 12.6005 17.0132 12.4447C17.0201 12.2987 17.1269 12.1936 17.286 12.2027C17.8088 12.2323 18.3139 12.3455 18.7788 12.5916C19.724 13.0922 20.264 13.8823 20.4217 14.9374C20.4288 14.9853 20.4402 15.0326 20.4438 15.0805C20.4527 15.1989 20.4584 15.3174 20.4674 15.4737C20.4636 15.5021 20.4584 15.3174 20.4674 15.4737Z" fill="white"/>
<path d="M19.0504 15.4188C18.8598 15.4222 18.7578 15.3166 18.738 15.142C18.7244 15.0202 18.7135 14.8967 18.6845 14.7781C18.6272 14.5445 18.5031 14.3282 18.3067 14.1851C18.214 14.1175 18.1088 14.0683 17.9988 14.0365C17.859 13.996 17.7137 14.0072 17.5743 13.973C17.4229 13.9359 17.3391 13.8132 17.3629 13.6712C17.3846 13.5418 17.5103 13.4409 17.6517 13.4512C18.535 13.5149 19.1664 13.9716 19.2565 15.0115C19.2629 15.0849 19.2704 15.1624 19.2541 15.2327C19.2261 15.3527 19.1371 15.4129 19.0504 15.4188C18.8597 15.4222 19.1371 15.4129 19.0504 15.4188Z" fill="white"/>
<path d="M25.9932 11.9482L25.9877 11.9257C25.7331 10.8964 24.9775 9.82497 24.0315 9.00977L22.7525 10.1432C23.513 10.7491 24.1646 11.5886 24.3498 12.32C24.8558 14.638 24.8558 16.9878 24.3498 19.3059C24.0465 20.504 22.4916 21.9933 21.2562 22.2685C19.6389 22.5761 18.0087 22.7075 16.3801 22.6624C16.3477 22.6615 16.3166 22.6741 16.2941 22.6974C16.0629 22.9346 14.7777 24.2541 14.7777 24.2541L13.1648 25.9094C13.0469 26.0324 12.8397 25.9488 12.8397 25.779V22.3833C12.8397 22.3271 12.7996 22.2795 12.7445 22.2686C12.7442 22.2686 12.7439 22.2685 12.7436 22.2685C12.0415 22.1121 11.2367 21.5634 10.6167 20.8991L9.35303 22.0189C10.1423 22.8775 11.1602 23.5716 12.1532 23.8551V25.905C12.1532 26.6469 13.0574 27.0113 13.5715 26.4759L15.6483 24.3171C16.0988 24.3422 16.5494 24.3563 17.0001 24.3563C18.5312 24.3563 20.0631 24.2115 21.5837 23.9214L21.6048 23.9171C23.4855 23.5072 25.5333 21.5368 25.9875 19.7004L25.9931 19.678C26.5547 17.1133 26.5547 14.5127 25.9932 11.9482Z" fill="#D1D1D1"/>
<path d="M19.6875 20.8733C19.8526 20.8224 19.4975 20.8156 19.6875 20.8733V20.8733Z" fill="white"/>
<path d="M21.1122 18.7042C20.863 18.4848 20.5938 18.2964 20.3237 18.1038C20.0484 17.9076 19.7715 17.7135 19.4857 17.5326C19.2001 17.3519 18.8612 17.3547 18.596 17.5715C18.3247 17.7934 18.1994 18.2181 17.8121 18.2634C17.581 18.2903 17.3794 18.193 17.1788 18.1096C16.4072 17.7886 15.8217 17.2977 15.3793 16.678L14.439 17.5114C14.4709 17.5484 14.5014 17.5863 14.5339 17.6229C15.8037 19.052 17.4068 19.9843 19.1486 20.707C19.3166 20.7768 19.4977 20.8156 19.6876 20.8731C19.4977 20.8154 19.8529 20.8223 19.6876 20.8731C19.8529 20.8223 20.0276 20.7968 20.1742 20.7183C20.6929 20.4396 21.0524 20.0032 21.2994 19.4786C21.4345 19.1923 21.3519 18.9153 21.1122 18.7042Z" fill="#D1D1D1"/>
<path d="M17.0107 10.9868C17.0088 10.9868 17.0069 10.9866 17.005 10.9866C17.0032 10.9865 17.0056 10.9866 17.0107 10.9868Z" fill="white"/>
<path d="M17.0054 10.9854C17.0073 10.9854 17.0092 10.9856 17.0111 10.9856C17.1375 10.9901 19.194 11.0467 17.0054 10.9854Z" fill="white"/>
<path d="M20.273 12.3408L19.8721 12.6962C20.5021 13.3091 20.9365 14.1214 21.0607 15.0154C21.1053 15.3369 21.1217 15.6625 21.1451 15.9867C21.157 16.1505 21.2391 16.3033 21.4219 16.3012C21.5987 16.299 21.6915 16.1434 21.6787 15.9796C21.6482 15.59 21.6239 15.1976 21.5556 14.8138C21.3801 13.8278 20.9228 12.9837 20.273 12.3408Z" fill="#D1D1D1"/>
<path d="M20.4214 14.9375C20.3066 14.1686 19.9877 13.5412 19.4579 13.0632L19.0581 13.4175C19.2648 13.601 19.4437 13.8165 19.5814 14.0541C19.8248 14.474 19.9296 14.9561 19.9304 15.4386C19.9306 15.5124 19.9341 15.5903 19.9578 15.6589C20.0377 15.8898 20.3844 15.8612 20.4449 15.6324C20.4616 15.5693 20.4635 15.5024 20.4673 15.474C20.4635 15.5025 20.4581 15.3178 20.4673 15.474C20.4581 15.3178 20.4526 15.1992 20.4436 15.0807C20.4401 15.0326 20.4286 14.9853 20.4214 14.9375Z" fill="#D1D1D1"/>
<path d="M20.4674 15.4737C20.4584 15.3174 20.4636 15.5021 20.4674 15.4737V15.4737Z" fill="white"/>
<path d="M19.0503 15.4186C19.0532 15.4184 19.0561 15.4168 19.0589 15.4165C19.0509 15.4165 19.0386 15.4167 19.0259 15.4172C19.0341 15.4174 19.0416 15.4186 19.0503 15.4186Z" fill="white"/>
<path d="M19.0504 15.4186C19.0418 15.4188 19.0342 15.4175 19.026 15.4172C18.9847 15.4184 18.9422 15.4206 19.0504 15.4186Z" fill="white"/>
<path d="M19.059 15.4165C19.056 15.4168 19.0531 15.4184 19.0503 15.4186C19.0726 15.417 19.0707 15.4165 19.059 15.4165Z" fill="white"/>
<path d="M18.6477 13.781L18.2407 14.1417C18.2632 14.1553 18.2851 14.1695 18.3065 14.185C18.5029 14.3281 18.627 14.5445 18.6843 14.778C18.7133 14.8966 18.7241 15.02 18.7378 15.1419C18.7566 15.3088 18.8514 15.4114 19.0258 15.4174C19.0385 15.4171 19.051 15.4168 19.0589 15.4167C19.1428 15.4074 19.2269 15.3486 19.2538 15.2325C19.2701 15.1623 19.2627 15.0847 19.2562 15.0113C19.2056 14.4299 18.9858 14.031 18.6477 13.781Z" fill="#D1D1D1"/>
</svg>
